# ESP-IDF Partition Table
# Name,   Type, SubType, Offset,  Size, Flags
nvs,      data, nvs,     0x9000,   0x4000,
otadata,  data, ota,     0xd000,   0x2000,
phy_init, data, phy,     0xf000,   0x1000,
factory,  app,  ota_0, 0x10000,  0xF0000,
ota_1,    app,  ota_1,   0x100000,  0xF0000,

# 0x80000 512K